<?xml version="1.0" encoding="UTF-8"?>
<svg width="20px" height="15px" viewBox="0 0 20 15" version="1.1" xmlns="http://www.w3.org/2000/svg" xmlns:xlink="http://www.w3.org/1999/xlink">
    <!-- Generator: Sketch 39.1 (31720) - http://www.bohemiancoding.com/sketch -->
    <title>Group 4</title>
    <desc>Created with Sketch.</desc>
    <defs></defs>
    <g id="Page-1" stroke="none" stroke-width="1" fill="none" fill-rule="evenodd">
        <g id="home-page" transform="translate(-1123.000000, -15.000000)" fill="#9B9B9B">
            <g id="header" transform="translate(-53.000000, 0.000000)">
                <g id="Group-4" transform="translate(1176.000000, 15.000000)">
                    <polygon id="Shape" points="0 4.59183673 0 15 20 15 20 4.59183673 9.99969772 9.53835309"></polygon>
                    <polygon id="Shape" points="0 0 0 2.85721446 9.99969772 7.95918367 20 2.85721446 20 0"></polygon>
                </g>
            </g>
        </g>
    </g>
</svg>